<svg width="128" height="128" viewBox="0 0 128 128" fill="none" xmlns="http://www.w3.org/2000/svg">
<circle cx="64" cy="64" r="64" fill="url(#paint0_linear)"/>
<path fill-rule="evenodd" clip-rule="evenodd" d="M29.3048 39.5732H98.6951L64 69.9307L29.3048 39.5732ZM92.0695 75.6168L77.819 63.7415L101.75 42.802V86.2055C101.75 87.433 100.757 88.4263 99.5293 88.4263H28.4705C27.2432 88.4263 26.25 87.433 26.25 86.2055V42.8023L50.181 63.7415L35.9305 75.6168C34.9895 76.4018 34.8615 77.8028 35.6465 78.746C36.4307 79.6848 37.827 79.8155 38.7758 79.03L53.567 66.7043L62.5385 74.554C62.957 74.9203 63.4775 75.1025 64 75.1025C64.5225 75.1025 65.043 74.9205 65.4615 74.554L74.433 66.7043L89.2242 79.03C90.174 79.8165 91.57 79.6835 92.3535 78.746C93.1385 77.8025 93.0108 76.4018 92.0695 75.6168Z" fill="url(#paint1_linear)"/>
<defs>
<linearGradient id="paint0_linear" x1="136.413" y1="128" x2="136.413" y2="-16.8255" gradientUnits="userSpaceOnUse">
<stop stop-color="#CCE8FF"/>
<stop offset="1" stop-color="#F4FFFB"/>
</linearGradient>
<linearGradient id="paint1_linear" x1="26.25" y1="39.5733" x2="26.2501" y2="88.4263" gradientUnits="userSpaceOnUse">
<stop stop-color="#4485DE"/>
<stop offset="1" stop-color="#7CD1E6"/>
</linearGradient>
</defs>
</svg>
