<svg xmlns="http://www.w3.org/2000/svg" width="18" height="12" viewBox="0 0 18 12">
    <g fill="none" fill-rule="evenodd">
        <g fill="#888">
            <g>
                <path d="M15.233 19.252C15.6 18.512 16.364 18 17.25 18h13.5c.886 0 1.65.512 2.017 1.252.149.301.233.641.233.998v7.5c0 1.243-1.007 2.25-2.25 2.25h-13.5C16.007 30 15 28.993 15 27.75v-7.5c0-.357.084-.697.233-.998zm2.083.248l6.325 3.45c.224.122.494.122.718 0l6.325-3.45H17.316zM31.5 20.764l-6.422 3.502c-.672.367-1.484.367-2.156 0L16.5 20.764v6.986c0 .414.336.75.75.75h13.5c.414 0 .75-.336.75-.75v-6.986z" transform="translate(-554 -404) translate(539 386)"/>
            </g>
        </g>
    </g>
</svg>
