<svg width="14" height="14" viewBox="0 0 14 14" fill="none" xmlns="http://www.w3.org/2000/svg">
<path fill-rule="evenodd" clip-rule="evenodd" d="M9.92562 9.15677C10.7219 8.18954 11.2 6.9506 11.2 5.59999C11.2 2.5072 8.69278 0 5.59999 0C2.5072 0 0 2.5072 0 5.59999C0 8.69278 2.5072 11.2 5.59999 11.2C6.94948 11.2 8.18747 10.7226 9.15435 9.92761C9.17127 10.0794 9.23792 10.2267 9.35434 10.3432L12.8069 13.7957C13.0793 14.0681 13.5209 14.0681 13.7933 13.7957C14.0657 13.5233 14.0657 13.0817 13.7933 12.8093L10.3408 9.35671C10.2245 9.2404 10.0773 9.17375 9.92562 9.15677ZM5.60214 9.88232C3.23706 9.88232 1.31979 7.96505 1.31979 5.59997C1.31979 3.2349 3.23706 1.31763 5.60214 1.31763C7.96721 1.31763 9.88448 3.2349 9.88448 5.59997C9.88448 7.96505 7.96721 9.88232 5.60214 9.88232Z" fill="#AFAFAF"/>
</svg>
