<svg width="19" height="23" viewBox="0 0 19 23" fill="none" xmlns="http://www.w3.org/2000/svg">
<g clip-path="url(#clip0_14492_233830)">
<path fill-rule="evenodd" clip-rule="evenodd" d="M11.4 0L19 7.66667V20.3167C19 21.7986 17.8091 23 16.34 23H2.66C1.19092 23 0 21.7986 0 20.3167V2.68333C0 1.20137 1.19092 0 2.66 0H11.4Z" fill="url(#paint0_linear_14492_233830)"/>
<mask id="mask0_14492_233830" style="mask-type:alpha" maskUnits="userSpaceOnUse" x="0" y="0" width="19" height="23">
<path fill-rule="evenodd" clip-rule="evenodd" d="M11.4 0L19 7.66667V20.3167C19 21.7986 17.8091 23 16.34 23H2.66C1.19092 23 0 21.7986 0 20.3167V2.68333C0 1.20137 1.19092 0 2.66 0H11.4Z" fill="white"/>
</mask>
<g mask="url(#mask0_14492_233830)">
</g>
<path fill-rule="evenodd" clip-rule="evenodd" d="M10.8232 11.3151V11.3086H2.84961V11.9789H2.85194V13.2964H2.84961V13.9666H2.85194V15.9919H2.85011V16.6622H2.85194V18.6874H2.85057V19.3577H2.85194V19.3586H3.5164V19.3577H5.51896V19.3586H6.18342V19.3577H7.4986V19.3586H8.16306V19.3577H10.161V19.3586H10.8255V11.3151H10.8232ZM10.161 18.6874V16.6622H8.16306V18.6874H10.161ZM7.4986 18.6874V16.6622H6.18342V18.6874H7.4986ZM5.51896 18.6874V16.6622H3.5164V18.6874H5.51896ZM3.5164 15.9919H5.51896V13.9666H3.5164V15.9919ZM3.5164 13.2964H10.161V11.9789H3.5164V13.2964ZM10.161 13.9666H8.16306V15.9919H10.161V13.9666ZM7.4986 15.9919V13.9666H6.18342V15.9919H7.4986Z" fill="white"/>
<g opacity="0.4" filter="url(#filter0_d_14492_233830)">
<path fill-rule="evenodd" clip-rule="evenodd" d="M19 7.66797H14.1944C12.7253 7.66797 11.4 6.33107 11.4 4.84911V0.00130177L19 7.66797Z" fill="white" fill-opacity="0.4"/>
</g>
<rect y="13.2266" width="12.92" height="4.40833" fill="#0D7747"/>
<path d="M5.21801 16.6814C5.67971 16.6814 5.95331 16.5158 6.19955 16.2501L5.86439 15.9086C5.67629 16.0811 5.50871 16.1915 5.23511 16.1915C4.82471 16.1915 4.54085 15.8465 4.54085 15.4325V15.4256C4.54085 15.0116 4.83155 14.6735 5.23511 14.6735C5.47451 14.6735 5.66261 14.777 5.84729 14.946L6.18245 14.5562C5.96015 14.3354 5.68997 14.1836 5.23853 14.1836C4.50323 14.1836 3.99023 14.7459 3.99023 15.4325V15.4394C3.99023 16.1328 4.51349 16.6814 5.21801 16.6814Z" fill="white"/>
<path d="M7.47276 16.6745C7.98918 16.6745 8.3517 16.4054 8.3517 15.9258V15.9189C8.3517 15.498 8.0781 15.3221 7.59246 15.1944C7.17864 15.0875 7.07604 15.0357 7.07604 14.877V14.8701C7.07604 14.7528 7.18206 14.6597 7.38384 14.6597C7.58562 14.6597 7.79424 14.7494 8.00628 14.8977L8.27988 14.4975C8.03706 14.3009 7.73952 14.1905 7.39068 14.1905C6.90162 14.1905 6.55278 14.4803 6.55278 14.9184V14.9253C6.55278 15.4049 6.864 15.5394 7.34622 15.6636C7.74636 15.7671 7.82844 15.8361 7.82844 15.9707V15.9776C7.82844 16.119 7.69848 16.2053 7.48302 16.2053C7.20942 16.2053 6.9837 16.0914 6.76824 15.912L6.45702 16.2881C6.7443 16.5468 7.11024 16.6745 7.47276 16.6745Z" fill="white"/>
<path d="M9.4679 16.6572H9.93302L10.9009 14.225H10.3332L9.7073 15.9258L9.08144 14.225H8.50004L9.4679 16.6572Z" fill="white"/>
</g>
<defs>
<filter id="filter0_d_14492_233830" x="9.40039" y="-4" width="11.5996" height="11.668" filterUnits="userSpaceOnUse" color-interpolation-filters="sRGB">
<feFlood flood-opacity="0" result="BackgroundImageFix"/>
<feColorMatrix in="SourceAlpha" type="matrix" values="0 0 0 0 0 0 0 0 0 0 0 0 0 0 0 0 0 0 127 0" result="hardAlpha"/>
<feOffset dy="-2"/>
<feGaussianBlur stdDeviation="1"/>
<feColorMatrix type="matrix" values="0 0 0 0 0 0 0 0 0 0 0 0 0 0 0 0 0 0 0.0909637 0"/>
<feBlend mode="normal" in2="BackgroundImageFix" result="effect1_dropShadow_14492_233830"/>
<feBlend mode="normal" in="SourceGraphic" in2="effect1_dropShadow_14492_233830" result="shape"/>
</filter>
<linearGradient id="paint0_linear_14492_233830" x1="9.5" y1="0" x2="9.5" y2="23" gradientUnits="userSpaceOnUse">
<stop stop-color="#19BE73"/>
<stop offset="1" stop-color="#03A35B"/>
</linearGradient>
<clipPath id="clip0_14492_233830">
<rect width="19" height="23" fill="white"/>
</clipPath>
</defs>
</svg>
