<svg width="15" height="15" viewBox="0 0 15 15" fill="none" xmlns="http://www.w3.org/2000/svg">
<path d="M2.17188 2.21387C1.86107 2.21387 1.563 2.33616 1.34323 2.55383C1.12347 2.77151 1 3.06674 1 3.37458L1 4.9222C1 5.23004 1.12347 5.52527 1.34323 5.74295C1.563 5.96063 1.86107 6.08291 2.17188 6.08291H12.3281C12.6389 6.08291 12.937 5.96063 13.1568 5.74295C13.3765 5.52527 13.5 5.23004 13.5 4.9222V3.37458C13.5 3.06674 13.3765 2.77151 13.1568 2.55383C12.937 2.33616 12.6389 2.21387 12.3281 2.21387H2.17188ZM2.95312 3.76149H5.29688C5.40048 3.76149 5.49983 3.80225 5.57309 3.87481C5.64635 3.94737 5.6875 4.04578 5.6875 4.14839C5.6875 4.251 5.64635 4.34942 5.57309 4.42197C5.49983 4.49453 5.40048 4.5353 5.29688 4.5353H2.95312C2.84952 4.5353 2.75017 4.49453 2.67691 4.42197C2.60366 4.34942 2.5625 4.251 2.5625 4.14839C2.5625 4.04578 2.60366 3.94737 2.67691 3.87481C2.75017 3.80225 2.84952 3.76149 2.95312 3.76149Z" fill="#455A64"/>
<path d="M3.76651 7.5393C3.53209 7.74768 3.40039 8.03029 3.40039 8.32498V11.1028C3.40039 11.3974 3.53209 11.6801 3.76651 11.8884C4.00093 12.0968 4.31887 12.2139 4.65039 12.2139H12.1504C12.4819 12.2139 12.7999 12.0968 13.0343 11.8884C13.2687 11.6801 13.4004 11.3974 13.4004 11.1028V8.32498C13.4004 8.03029 13.2687 7.74768 13.0343 7.5393C12.7999 7.33093 12.4819 7.21387 12.1504 7.21387H4.65039C4.31887 7.21387 4.00093 7.33093 3.76651 7.5393Z" fill="#607D8B"/>
</svg>
