<svg width="16" height="16" viewBox="0 0 16 16" fill="none" xmlns="http://www.w3.org/2000/svg">
<path d="M4.75033 15.5846C4.44338 15.5846 4.18627 15.4806 3.97899 15.2726C3.77099 15.0654 3.66699 14.8082 3.66699 14.5013V12.3346H1.50033C1.19338 12.3346 0.935909 12.2306 0.727909 12.0226C0.520631 11.8154 0.416992 11.5582 0.416992 11.2513C0.416992 10.9444 0.520631 10.6869 0.727909 10.4789C0.935909 10.2716 1.19338 10.168 1.50033 10.168H4.75033C5.05727 10.168 5.31474 10.2716 5.52274 10.4789C5.73002 10.6869 5.83366 10.9444 5.83366 11.2513V14.5013C5.83366 14.8082 5.73002 15.0654 5.52274 15.2726C5.31474 15.4806 5.05727 15.5846 4.75033 15.5846ZM1.50033 5.83463C1.19338 5.83463 0.935909 5.73063 0.727909 5.52263C0.520631 5.31536 0.416992 5.05825 0.416992 4.7513C0.416992 4.44436 0.520631 4.18688 0.727909 3.97888C0.935909 3.77161 1.19338 3.66797 1.50033 3.66797H3.66699V1.5013C3.66699 1.19436 3.77099 0.936886 3.97899 0.728886C4.18627 0.521608 4.44338 0.417969 4.75033 0.417969C5.05727 0.417969 5.31474 0.521608 5.52274 0.728886C5.73002 0.936886 5.83366 1.19436 5.83366 1.5013V4.7513C5.83366 5.05825 5.73002 5.31536 5.52274 5.52263C5.31474 5.73063 5.05727 5.83463 4.75033 5.83463H1.50033ZM11.2503 15.5846C10.9434 15.5846 10.6863 15.4806 10.479 15.2726C10.271 15.0654 10.167 14.8082 10.167 14.5013V11.2513C10.167 10.9444 10.271 10.6869 10.479 10.4789C10.6863 10.2716 10.9434 10.168 11.2503 10.168H14.5003C14.8073 10.168 15.0644 10.2716 15.2717 10.4789C15.4797 10.6869 15.5837 10.9444 15.5837 11.2513C15.5837 11.5582 15.4797 11.8154 15.2717 12.0226C15.0644 12.2306 14.8073 12.3346 14.5003 12.3346H12.3337V14.5013C12.3337 14.8082 12.23 15.0654 12.0227 15.2726C11.8147 15.4806 11.5573 15.5846 11.2503 15.5846ZM11.2503 5.83463C10.9434 5.83463 10.6863 5.73063 10.479 5.52263C10.271 5.31536 10.167 5.05825 10.167 4.7513V1.5013C10.167 1.19436 10.271 0.936886 10.479 0.728886C10.6863 0.521608 10.9434 0.417969 11.2503 0.417969C11.5573 0.417969 11.8147 0.521608 12.0227 0.728886C12.23 0.936886 12.3337 1.19436 12.3337 1.5013V3.66797H14.5003C14.8073 3.66797 15.0644 3.77161 15.2717 3.97888C15.4797 4.18688 15.5837 4.44436 15.5837 4.7513C15.5837 5.05825 15.4797 5.31536 15.2717 5.52263C15.0644 5.73063 14.8073 5.83463 14.5003 5.83463H11.2503Z" fill="#9A9A9A"/>
</svg>
