<svg width="14" height="24" viewBox="0 0 14 24" fill="none" xmlns="http://www.w3.org/2000/svg">
<path d="M11.6667 0.333252H2.33333C1.71449 0.333252 1.121 0.579085 0.683417 1.01667C0.245833 1.45425 0 2.04775 0 2.66659V21.3333C0 21.9521 0.245833 22.5456 0.683417 22.9832C1.121 23.4208 1.71449 23.6666 2.33333 23.6666H11.6667C12.2855 23.6666 12.879 23.4208 13.3166 22.9832C13.7542 22.5456 14 21.9521 14 21.3333V2.66659C14 2.04775 13.7542 1.45425 13.3166 1.01667C12.879 0.579085 12.2855 0.333252 11.6667 0.333252ZM8.16667 22.4999H5.83333V21.3333H8.16667V22.4999ZM11.6667 20.1666H2.33333V3.83325H11.6667V20.1666Z" fill="#606060"/>
</svg>
