<?xml version="1.0" encoding="utf-8"?>
<svg xmlns="http://www.w3.org/2000/svg" xmlns:xlink="http://www.w3.org/1999/xlink" style="margin: auto; background: none; display: block; shape-rendering: auto;" width="200px" height="200px" viewBox="0 0 100 100" preserveAspectRatio="xMidYMid">
<circle cx="84" cy="50" r="10" fill="#93dbe9">
    <animate attributeName="r" repeatCount="indefinite" dur="0.5681818181818182s" calcMode="spline" keyTimes="0;1" values="10;0" keySplines="0 0.5 0.5 1" begin="0s"></animate>
    <animate attributeName="fill" repeatCount="indefinite" dur="2.272727272727273s" calcMode="discrete" keyTimes="0;0.25;0.5;0.75;1" values="#93dbe9;#3b4368;#5e6fa3;#689cc5;#93dbe9" begin="0s"></animate>
</circle><circle cx="16" cy="50" r="10" fill="#93dbe9">
  <animate attributeName="r" repeatCount="indefinite" dur="2.272727272727273s" calcMode="spline" keyTimes="0;0.25;0.5;0.75;1" values="0;0;10;10;10" keySplines="0 0.5 0.5 1;0 0.5 0.5 1;0 0.5 0.5 1;0 0.5 0.5 1" begin="0s"></animate>
  <animate attributeName="cx" repeatCount="indefinite" dur="2.272727272727273s" calcMode="spline" keyTimes="0;0.25;0.5;0.75;1" values="16;16;16;50;84" keySplines="0 0.5 0.5 1;0 0.5 0.5 1;0 0.5 0.5 1;0 0.5 0.5 1" begin="0s"></animate>
</circle><circle cx="50" cy="50" r="10" fill="#689cc5">
  <animate attributeName="r" repeatCount="indefinite" dur="2.272727272727273s" calcMode="spline" keyTimes="0;0.25;0.5;0.75;1" values="0;0;10;10;10" keySplines="0 0.5 0.5 1;0 0.5 0.5 1;0 0.5 0.5 1;0 0.5 0.5 1" begin="-0.5681818181818182s"></animate>
  <animate attributeName="cx" repeatCount="indefinite" dur="2.272727272727273s" calcMode="spline" keyTimes="0;0.25;0.5;0.75;1" values="16;16;16;50;84" keySplines="0 0.5 0.5 1;0 0.5 0.5 1;0 0.5 0.5 1;0 0.5 0.5 1" begin="-0.5681818181818182s"></animate>
</circle><circle cx="84" cy="50" r="10" fill="#5e6fa3">
  <animate attributeName="r" repeatCount="indefinite" dur="2.272727272727273s" calcMode="spline" keyTimes="0;0.25;0.5;0.75;1" values="0;0;10;10;10" keySplines="0 0.5 0.5 1;0 0.5 0.5 1;0 0.5 0.5 1;0 0.5 0.5 1" begin="-1.1363636363636365s"></animate>
  <animate attributeName="cx" repeatCount="indefinite" dur="2.272727272727273s" calcMode="spline" keyTimes="0;0.25;0.5;0.75;1" values="16;16;16;50;84" keySplines="0 0.5 0.5 1;0 0.5 0.5 1;0 0.5 0.5 1;0 0.5 0.5 1" begin="-1.1363636363636365s"></animate>
</circle><circle cx="16" cy="50" r="10" fill="#3b4368">
  <animate attributeName="r" repeatCount="indefinite" dur="2.272727272727273s" calcMode="spline" keyTimes="0;0.25;0.5;0.75;1" values="0;0;10;10;10" keySplines="0 0.5 0.5 1;0 0.5 0.5 1;0 0.5 0.5 1;0 0.5 0.5 1" begin="-1.7045454545454546s"></animate>
  <animate attributeName="cx" repeatCount="indefinite" dur="2.272727272727273s" calcMode="spline" keyTimes="0;0.25;0.5;0.75;1" values="16;16;16;50;84" keySplines="0 0.5 0.5 1;0 0.5 0.5 1;0 0.5 0.5 1;0 0.5 0.5 1" begin="-1.7045454545454546s"></animate>
</circle>
<!-- [ldio] generated by https://loading.io/ --></svg>