<svg width="12" height="12" viewBox="0 0 12 12" fill="none" xmlns="http://www.w3.org/2000/svg">
<path d="M11.8819 10.0351C10.1217 6.81952 8.36065 3.60389 6.60003 0.388265C6.54131 0.276979 6.45334 0.183827 6.3456 0.118849C6.23785 0.0538709 6.11441 0.0195312 5.98859 0.0195312C5.86276 0.0195313 5.73933 0.0538709 5.63158 0.118849C5.52383 0.183827 5.43586 0.276979 5.37715 0.388265C3.61671 3.60389 1.85477 6.81952 0.0952736 10.0351C-0.177164 10.5318 0.170086 11.1757 0.706149 11.1757H11.2718C11.5688 11.1757 11.7683 11.0158 11.8723 10.7988C12.0032 10.5922 12.0383 10.3179 11.8827 10.0348" fill="#FFDD15"/>
<path d="M5.42204 6.46347L5.25535 3.97684C5.22423 3.49253 5.20923 3.14453 5.20923 2.93341C5.20923 2.64578 5.28423 2.42209 5.4346 2.26066C5.58554 2.10016 5.78392 2.01953 6.02992 2.01953C6.32673 2.01953 6.52604 2.12284 6.62579 2.32816C6.72648 2.53478 6.77748 2.83141 6.77748 3.21897C6.77748 3.44678 6.7651 3.67891 6.74035 3.91422L6.51723 6.47341C6.49304 6.77828 6.44148 7.01191 6.36217 7.17447C6.28229 7.33778 6.15067 7.41841 5.96673 7.41841C5.78073 7.41841 5.64985 7.33984 5.57823 7.18272C5.50454 7.02503 5.45298 6.78522 5.42204 6.46347ZM5.99804 9.87916C5.7871 9.87916 5.60317 9.81128 5.44548 9.67422C5.28779 9.53772 5.20923 9.34647 5.20923 9.10084C5.20923 8.88653 5.28423 8.70334 5.4346 8.55316C5.58554 8.40203 5.76948 8.32703 5.98792 8.32703C6.20635 8.32703 6.3916 8.40203 6.5461 8.55316C6.69892 8.70334 6.77748 8.88653 6.77748 9.10084C6.77748 9.34272 6.69892 9.53359 6.54385 9.67159C6.39478 9.80743 6.1997 9.88162 5.99804 9.87916Z" fill="#1F2E35"/>
</svg>
