<svg width="29" height="29" viewBox="0 0 29 29" fill="none" xmlns="http://www.w3.org/2000/svg">
<path fill-rule="evenodd" clip-rule="evenodd" d="M20.572 8.25617C18.8773 6.30712 16.3795 5.07495 13.5938 5.07495C8.48867 5.07495 4.3501 9.21352 4.3501 14.3187C4.3501 19.4239 8.48867 23.5625 13.5938 23.5625C18.699 23.5625 22.8376 19.4239 22.8376 14.3187C22.8376 13.6754 22.7719 13.0475 22.6468 12.4413L20.8222 14.7942C20.5774 18.5731 17.4347 21.5625 13.5938 21.5625C9.59324 21.5625 6.3501 18.3193 6.3501 14.3187C6.3501 10.3181 9.59324 7.07495 13.5938 7.07495C15.9271 7.07495 18.0026 8.17807 19.3275 9.89122L20.572 8.25617Z" fill="#1A85E4"/>
<path d="M22.4502 7.37754C22.7049 7.13271 23.0439 6.99735 23.3956 7.00004C23.7474 7.00273 24.0843 7.14324 24.3353 7.39194C24.5864 7.64063 24.7319 7.97805 24.7412 8.333C24.7505 8.68795 24.6228 9.03266 24.3852 9.2944L17.1697 18.4041C17.0456 18.539 16.8959 18.6472 16.7294 18.7224C16.563 18.7975 16.3832 18.838 16.2009 18.8414C16.0186 18.8448 15.8374 18.8111 15.6683 18.7422C15.4992 18.6733 15.3456 18.5708 15.2167 18.4406L10.4317 13.6101C10.2984 13.4847 10.1915 13.3336 10.1174 13.1656C10.0433 12.9977 10.0034 12.8164 10.0002 12.6325C9.997 12.4487 10.0305 12.2661 10.0987 12.0956C10.1669 11.9251 10.2685 11.7702 10.3972 11.6402C10.526 11.5102 10.6795 11.4077 10.8483 11.3388C11.0172 11.27 11.1981 11.2361 11.3802 11.2394C11.5623 11.2426 11.7419 11.2829 11.9083 11.3577C12.0747 11.4325 12.2244 11.5404 12.3486 11.675L16.1353 15.4959L22.4158 7.4177C22.4271 7.40364 22.4392 7.39024 22.452 7.37754H22.4502Z" fill="#1A85E4"/>
</svg>
