<svg width="29" height="29" viewBox="0 0 29 29" fill="none" xmlns="http://www.w3.org/2000/svg">
<rect x="3" y="10" width="23" height="9" rx="1" stroke="#1A85E4" stroke-width="2"/>
<g clip-path="url(#clip0_8476_4141)">
<path d="M22.0121 14.7134C21.1269 14.7134 20.3851 14.4533 20.1826 14.1027C20.147 14.1644 20.1262 14.2286 20.1262 14.2951V14.8688C20.1262 15.3121 20.9708 15.6717 22.0121 15.6717C23.054 15.6717 23.8989 15.3121 23.8989 14.8688V14.2951C23.8989 14.2286 23.8778 14.1644 23.8419 14.1027C23.6394 14.4532 22.8982 14.7134 22.0121 14.7134Z" fill="#1A85E4"/>
<path d="M22.0121 15.8985C21.1269 15.8985 20.3851 15.6382 20.1826 15.2882C20.147 15.3496 20.1262 15.4137 20.1262 15.4801V16.0543C20.1262 16.4977 20.9708 16.8572 22.0121 16.8572C23.054 16.8572 23.8989 16.4979 23.8989 16.0543V15.4801C23.8989 15.4137 23.8778 15.3496 23.8419 15.2884C23.6394 15.6382 22.8982 15.8985 22.0121 15.8985Z" fill="#1A85E4"/>
<path d="M23.8474 12.9553C23.8103 13.2801 23.0044 13.54 22.0121 13.54C21.0203 13.54 20.2144 13.2801 20.1775 12.9554C20.1451 13.0144 20.1262 13.0759 20.1262 13.1393V13.713C20.1262 14.1564 20.9708 14.5158 22.0121 14.5158C23.054 14.5158 23.8989 14.1566 23.8989 13.713V13.1393C23.8989 13.0759 23.8798 13.0144 23.8474 12.9553Z" fill="#1A85E4"/>
<path d="M22.0121 13.3579C23.0276 13.3579 23.8504 13.0861 23.8504 12.7503C23.8504 12.4148 23.0276 12.1429 22.0121 12.1429C20.9972 12.143 20.1741 12.415 20.1741 12.7505C20.1741 13.0861 20.9972 13.3579 22.0121 13.3579Z" fill="#1A85E4"/>
</g>
<defs>
<clipPath id="clip0_8476_4141">
<rect width="4.71428" height="4.71429" fill="white" transform="translate(19.6428 12.1429)"/>
</clipPath>
</defs>
</svg>
