<svg xmlns="http://www.w3.org/2000/svg" width="45" height="46" viewBox="0 0 45 46">
    <g fill="none" fill-rule="evenodd">
        <g>
            <g>
                <g>
                    <g>
                        <g>
                            <g fill="#ECECEC" fill-rule="nonzero">
                                <path d="M16.434 19.268c2.647 0 4.939-.95 6.812-2.822 1.873-1.873 2.822-4.165 2.822-6.812 0-2.647-.95-4.939-2.822-6.812C21.372.949 19.08 0 16.434 0c-2.648 0-4.94.95-6.812 2.822-1.873 1.873-2.823 4.165-2.823 6.812 0 2.647.95 4.94 2.823 6.812 1.873 1.872 4.165 2.822 6.812 2.822zM33.291 30.758c-.054-.78-.163-1.63-.324-2.527-.162-.905-.371-1.76-.621-2.542-.259-.807-.61-1.605-1.045-2.37-.451-.793-.98-1.484-1.575-2.053-.622-.594-1.383-1.073-2.263-1.421-.877-.347-1.85-.523-2.889-.523-.408 0-.803.167-1.566.664-.47.306-1.018.66-1.631 1.052-.524.333-1.234.646-2.11.93-.856.276-1.725.417-2.582.417-.857 0-1.725-.14-2.582-.418-.875-.282-1.585-.595-2.109-.93-.607-.387-1.156-.741-1.632-1.051-.762-.497-1.157-.664-1.566-.664-1.04 0-2.011.176-2.888.523-.88.348-1.641.826-2.263 1.422-.594.569-1.125 1.26-1.575 2.052-.434.765-.786 1.562-1.045 2.37-.25.782-.459 1.637-.62 2.542-.162.896-.271 1.747-.325 2.528-.053.765-.08 1.56-.08 2.362 0 2.088.664 3.778 1.973 5.025C3.265 39.376 4.976 40 7.056 40h19.26c2.08 0 3.79-.623 5.083-1.854 1.31-1.246 1.973-2.936 1.973-5.025 0-.806-.027-1.601-.08-2.363z" transform="translate(-784 -212) translate(306 145) translate(33 59) translate(445 8)"/>
                            </g>
                            <g>
                                <g fill-rule="nonzero">
                                    <path fill="#FFC107" d="M17.785 18.104c-3.057 2.495-12.6 2.495-15.595 0-3.056-2.495-2.744-13.162 0-15.97 2.745-2.806 12.85-2.806 15.595 0 2.744 2.808 3.056 13.475 0 15.97z" transform="translate(-784 -212) translate(306 145) translate(33 59) translate(445 8) translate(25 26)"/>
                                    <g fill="#FFF" opacity=".2">
                                        <path d="M10.05 13.737c-2.745 2.183-5.801 3.306-8.67 3.369-2.122-3.618-1.685-12.414.81-14.971C4.436-.173 11.485-.61 15.54.825c.997 4.117-1.061 9.357-5.49 12.912z" transform="translate(-784 -212) translate(306 145) translate(33 59) translate(445 8) translate(25 26)"/>
                                    </g>
                                </g>
                                <g fill="#FFF">
                                    <g>
                                        <path d="M5.069 0h.773c.283 0 .552.12.741.329l4.069 4.493c.345.381.345.962 0 1.343l-4.069 4.493c-.19.21-.458.33-.74.33h-.774c-.276 0-.5-.225-.5-.5 0-.126.047-.247.132-.34l4.287-4.654L4.701.839c-.187-.203-.174-.52.03-.707C4.821.047 4.942 0 5.068 0z" transform="translate(-784 -212) translate(306 145) translate(33 59) translate(445 8) translate(25 26) translate(4.5 5)"/>
                                        <path d="M.6 4.714h9.614v1.572H.6c-.331 0-.6-.269-.6-.6v-.372c0-.331.269-.6.6-.6z" transform="translate(-784 -212) translate(306 145) translate(33 59) translate(445 8) translate(25 26) translate(4.5 5)"/>
                                    </g>
                                </g>
                            </g>
                        </g>
                    </g>
                </g>
            </g>
        </g>
    </g>
</svg>
