<svg width="29" height="29" viewBox="0 0 29 29" fill="none" xmlns="http://www.w3.org/2000/svg">
<path fill-rule="evenodd" clip-rule="evenodd" d="M4 7H25V14H23V16H25C26.1046 16 27 15.1046 27 14V7C27 5.89543 26.1046 5 25 5H4C2.89543 5 2 5.89543 2 7V14C2 15.1046 2.89543 16 4 16H6V14H4L4 7Z" fill="#606060"/>
<path fill-rule="evenodd" clip-rule="evenodd" d="M19.5998 22.4001C20.1302 22.4001 20.6389 22.1894 21.014 21.8143C21.3891 21.4392 21.5998 20.9305 21.5998 20.4001C21.5998 19.8697 21.3891 19.361 21.014 18.9859C20.6389 18.6108 20.1302 18.4001 19.5998 18.4001C19.0694 18.4001 18.5607 18.6108 18.1856 18.9859C17.8105 19.361 17.5998 19.8697 17.5998 20.4001C17.5998 20.9305 17.8105 21.4392 18.1856 21.8143C18.5607 22.1894 19.0694 22.4001 19.5998 22.4001ZM19.5998 23.2001C20.3424 23.2001 21.0546 22.9051 21.5797 22.38C22.1048 21.8549 22.3998 21.1427 22.3998 20.4001C22.3998 19.6575 22.1048 18.9453 21.5797 18.4202C21.0546 17.8951 20.3424 17.6001 19.5998 17.6001C18.8572 17.6001 18.145 17.8951 17.6199 18.4202C17.0948 18.9453 16.7998 19.6575 16.7998 20.4001C16.7998 21.1427 17.0948 21.8549 17.6199 22.38C18.145 22.9051 18.8572 23.2001 19.5998 23.2001Z" fill="#606060"/>
<path fill-rule="evenodd" clip-rule="evenodd" d="M19.5998 19C19.7059 19 19.8077 19.0422 19.8827 19.1172C19.9577 19.1922 19.9998 19.294 19.9998 19.4V20.2344L20.2826 20.5172C20.3555 20.5927 20.3958 20.6937 20.3949 20.7986C20.394 20.9035 20.3519 21.0038 20.2778 21.078C20.2036 21.1521 20.1033 21.1942 19.9984 21.1951C19.8935 21.196 19.7925 21.1557 19.717 21.0828L19.1998 20.5656V19.4C19.1998 19.294 19.242 19.1922 19.317 19.1172C19.392 19.0422 19.4938 19 19.5998 19ZM11.1999 15.6H10.3999V16.4H11.1999V15.6ZM10.3999 14.8C10.1877 14.8 9.9842 14.8843 9.83417 15.0344C9.68414 15.1844 9.59985 15.3879 9.59985 15.6V16.4C9.59985 16.6122 9.68414 16.8157 9.83417 16.9657C9.9842 17.1158 10.1877 17.2 10.3999 17.2H11.1999C11.412 17.2 11.6155 17.1158 11.7655 16.9657C11.9156 16.8157 11.9999 16.6122 11.9999 16.4V15.6C11.9999 15.3879 11.9156 15.1844 11.7655 15.0344C11.6155 14.8843 11.412 14.8 11.1999 14.8H10.3999ZM14.3998 15.6H13.5998V16.4H14.3998V15.6ZM13.5998 14.8C13.3877 14.8 13.1842 14.8843 13.0342 15.0344C12.8841 15.1844 12.7998 15.3879 12.7998 15.6V16.4C12.7998 16.6122 12.8841 16.8157 13.0342 16.9657C13.1842 17.1158 13.3877 17.2 13.5998 17.2H14.3998C14.612 17.2 14.8155 17.1158 14.9655 16.9657C15.1156 16.8157 15.1998 16.6122 15.1998 16.4V15.6C15.1998 15.3879 15.1156 15.1844 14.9655 15.0344C14.8155 14.8843 14.612 14.8 14.3998 14.8H13.5998ZM17.5998 15.6H16.7998V16.4H17.5998V15.6ZM16.7998 14.8C16.5877 14.8 16.3842 14.8843 16.2342 15.0344C16.0841 15.1844 15.9998 15.3879 15.9998 15.6V16.4C15.9998 16.6122 16.0841 16.8157 16.2342 16.9657C16.3842 17.1158 16.5877 17.2 16.7998 17.2H17.5998C17.812 17.2 18.0155 17.1158 18.1655 16.9657C18.3156 16.8157 18.3998 16.6122 18.3998 16.4V15.6C18.3998 15.3879 18.3156 15.1844 18.1655 15.0344C18.0155 14.8843 17.812 14.8 17.5998 14.8H16.7998ZM11.1999 18.8H10.3999V19.6H11.1999V18.8ZM10.3999 18C10.1877 18 9.9842 18.0843 9.83417 18.2344C9.68414 18.3844 9.59985 18.5879 9.59985 18.8V19.6C9.59985 19.8122 9.68414 20.0157 9.83417 20.1657C9.9842 20.3158 10.1877 20.4 10.3999 20.4H11.1999C11.412 20.4 11.6155 20.3158 11.7655 20.1657C11.9156 20.0157 11.9999 19.8122 11.9999 19.6V18.8C11.9999 18.5879 11.9156 18.3844 11.7655 18.2344C11.6155 18.0843 11.412 18 11.1999 18H10.3999ZM14.3998 18.8H13.5998V19.6H14.3998V18.8ZM13.5998 18C13.3877 18 13.1842 18.0843 13.0342 18.2344C12.8841 18.3844 12.7998 18.5879 12.7998 18.8V19.6C12.7998 19.8122 12.8841 20.0157 13.0342 20.1657C13.1842 20.3158 13.3877 20.4 13.5998 20.4H14.3998C14.612 20.4 14.8155 20.3158 14.9655 20.1657C15.1156 20.0157 15.1998 19.8122 15.1998 19.6V18.8C15.1998 18.5879 15.1156 18.3844 14.9655 18.2344C14.8155 18.0843 14.612 18 14.3998 18H13.5998Z" fill="#606060"/>
<path fill-rule="evenodd" clip-rule="evenodd" d="M8.8 11.2C8.8 11.0939 8.84214 10.9922 8.91716 10.9172C8.99217 10.8421 9.09391 10.8 9.2 10.8H11.2V10H9.2C8.88174 10 8.57651 10.1264 8.35147 10.3515C8.12643 10.5765 8 10.8817 8 11.2V20.8C8 21.1182 8.12643 21.4235 8.35147 21.6485C8.57651 21.8736 8.88174 22 9.2 22H17.302C17.1314 21.7557 17.0011 21.4856 16.916 21.2H9.2C9.09391 21.2 8.99217 21.1578 8.91716 21.0828C8.84214 21.0078 8.8 20.9061 8.8 20.8V11.2ZM19.2 17.628C19.4653 17.59 19.7347 17.59 20 17.628V11.2C20 10.8817 19.8736 10.5765 19.6485 10.3515C19.4235 10.1264 19.1182 10 18.8 10H17.6V10.8H18.8C18.9061 10.8 19.0078 10.8421 19.0828 10.9172C19.1578 10.9922 19.2 11.0939 19.2 11.2V17.628ZM12 10.8H16.2252V10H12V10.8Z" fill="#606060"/>
<path fill-rule="evenodd" clip-rule="evenodd" d="M16.7996 10H11.9997V11.2C11.9997 11.3061 11.9575 11.4078 11.8825 11.4828C11.8075 11.5579 11.7057 11.6 11.5997 11.6C11.4936 11.6 11.3918 11.5579 11.3168 11.4828C11.2418 11.4078 11.1997 11.3061 11.1997 11.2V10H9.19966C8.98748 10 8.784 10.0843 8.63397 10.2343C8.48394 10.3843 8.39966 10.5878 8.39966 10.8V12.8C8.39966 13.0122 8.48394 13.2157 8.63397 13.3657C8.784 13.5157 8.98748 13.6 9.19966 13.6H18.7996C19.0118 13.6 19.2153 13.5157 19.3653 13.3657C19.5154 13.2157 19.5996 13.0122 19.5996 12.8V10.8C19.5996 10.5878 19.5154 10.3843 19.3653 10.2343C19.2153 10.0843 19.0118 10 18.7996 10H17.5996V11.2C17.5996 11.3061 17.5575 11.4078 17.4825 11.4828C17.4075 11.5579 17.3057 11.6 17.1996 11.6C17.0936 11.6 16.9918 11.5579 16.9168 11.4828C16.8418 11.4078 16.7996 11.3061 16.7996 11.2V10Z" fill="#606060"/>
<path fill-rule="evenodd" clip-rule="evenodd" d="M20 13.6H8.80005V12.8H20V13.6Z" fill="#606060"/>
<path d="M10.3999 9.20005C10.3999 9.09396 10.442 8.99222 10.5171 8.91721C10.5921 8.84219 10.6938 8.80005 10.7999 8.80005C10.906 8.80005 11.0077 8.84219 11.0827 8.91721C11.1578 8.99222 11.1999 9.09396 11.1999 9.20005V10.8C11.1999 10.9061 11.1578 11.0079 11.0827 11.0829C11.0077 11.1579 10.906 11.2 10.7999 11.2C10.6938 11.2 10.5921 11.1579 10.5171 11.0829C10.442 11.0079 10.3999 10.9061 10.3999 10.8V9.20005ZM15.9999 9.20005C15.9999 9.09396 16.042 8.99222 16.1171 8.91721C16.1921 8.84219 16.2938 8.80005 16.3999 8.80005C16.506 8.80005 16.6077 8.84219 16.6827 8.91721C16.7578 8.99222 16.7999 9.09396 16.7999 9.20005V10.8C16.7999 10.9061 16.7578 11.0079 16.6827 11.0829C16.6077 11.1579 16.506 11.2 16.3999 11.2C16.2938 11.2 16.1921 11.1579 16.1171 11.0829C16.042 11.0079 15.9999 10.9061 15.9999 10.8V9.20005Z" fill="#606060"/>
</svg>
