<svg width="29" height="29" viewBox="0 0 29 29" fill="none" xmlns="http://www.w3.org/2000/svg">
<path d="M17.3334 12.4583H18.4445V15.1042H17.3334V12.4583ZM17.3334 16.625H18.4445V19.2708H17.3334V16.625ZM10.3889 9.68054H11.5V12.3264H10.3889V9.68054ZM10.3889 13.8958H11.5V16.5H10.3889V13.8958Z" fill="#606060"/>
<path d="M25.3889 12.6944H25.2223C24.67 12.6944 24.2223 13.1422 24.2223 13.6944V19.8412C24.2223 20.2786 23.938 20.6652 23.5205 20.7957L19.3192 22.1086C18.8854 22.2442 18.4445 21.92 18.4445 21.4655V21.3472C18.4445 21.0404 18.1958 20.7917 17.8889 20.7917H17.8601C17.5692 20.7917 17.3334 21.0275 17.3334 21.3183C17.3334 21.7123 16.9167 21.9668 16.5663 21.7869L11.896 19.3907C11.6529 19.2659 11.5 19.0157 11.5 18.7425V18.5694C11.5 18.2626 11.2513 18.0139 10.9445 18.0139C10.6377 18.0139 10.3889 18.2626 10.3889 18.5694V18.7294C10.3889 19.0192 10.2141 19.2804 9.94608 19.3908L6.15885 20.9517C5.50064 21.2229 4.77781 20.739 4.77781 20.0271V9.46808C4.77781 9.06297 5.02223 8.69788 5.39678 8.54352L9.48515 6.85858C9.91589 6.68106 10.3889 6.99774 10.3889 7.46363V7.5625C10.3889 7.86932 10.6377 8.11806 10.9445 8.11806C11.2513 8.11806 11.5 7.86933 11.5 7.5625V7.50128C11.5 7.04032 11.9873 6.74226 12.3977 6.95216L14.8403 8.20148C15.1743 8.37231 15.5836 8.24987 15.7689 7.92369C15.9666 7.57579 15.8334 7.13328 15.4766 6.95227L11.3403 4.85417C11.2489 4.81186 11.1494 4.78995 11.0486 4.78995C10.9479 4.78995 10.8484 4.81186 10.757 4.85417L3.81948 7.69444C3.69157 7.74699 3.58225 7.83653 3.50555 7.95159C3.42884 8.06665 3.38823 8.20199 3.38892 8.34028V22.5625C3.38949 22.6762 3.41799 22.7881 3.4719 22.8882C3.52582 22.9884 3.60351 23.0738 3.69815 23.1369C3.79279 23.1999 3.90147 23.2388 4.01466 23.2501C4.12784 23.2613 4.24205 23.2446 4.34726 23.2014L10.5998 20.6016C10.8713 20.4887 11.1786 20.501 11.4402 20.6352L17.6875 23.8403C17.7561 23.8754 17.8298 23.8988 17.9056 23.9096C17.9726 23.9192 18.0404 23.9266 18.108 23.927C18.1439 23.9273 18.1799 23.9238 18.2153 23.9167L25.1598 21.75C25.3061 21.7042 25.4331 21.6112 25.5211 21.4856C25.609 21.3599 25.6529 21.2087 25.6459 21.0556V12.9379C25.6459 12.7981 25.5285 12.6869 25.3889 12.6944Z" fill="#606060"/>
<path d="M20.6458 2.79166L16.6736 9.6736C16.5881 9.80834 16.5408 9.96373 16.5367 10.1232C16.5325 10.2827 16.5718 10.4404 16.6502 10.5793C16.7286 10.7183 16.8432 10.8334 16.9818 10.9124C17.1205 10.9914 17.278 11.0312 17.4375 11.0278H25.3889C25.5442 11.0281 25.6969 10.9875 25.8314 10.9099C25.966 10.8323 26.0777 10.7206 26.1552 10.586C26.2328 10.4514 26.2734 10.2987 26.2729 10.1433C26.2725 9.98801 26.231 9.83555 26.1527 9.70138L22.1805 2.79166C22.1022 2.65767 21.9901 2.54652 21.8555 2.46929C21.7209 2.39205 21.5684 2.35141 21.4132 2.35141C21.258 2.35141 21.1055 2.39205 20.9708 2.46929C20.8362 2.54652 20.7241 2.65767 20.6458 2.79166Z" fill="#606060"/>
</svg>
