<svg width="29" height="29" viewBox="0 0 29 29" fill="none" xmlns="http://www.w3.org/2000/svg">
<rect x="6.4375" y="6.4375" width="16.4875" height="16.4875" rx="8.24375" stroke="#606060" stroke-width="2"/>
<circle cx="14.5001" cy="14.5" r="4.7125" fill="#606060"/>
</svg>
