<svg width="29" height="29" viewBox="0 0 29 29" fill="none" xmlns="http://www.w3.org/2000/svg">
<mask id="path-1-inside-1_8476_2362" fill="white">
<path d="M2 10C2 9.44771 2.44772 9 3 9H9V20H3C2.44772 20 2 19.5523 2 19V10Z"/>
</mask>
<path d="M0 10C0 8.34315 1.34315 7 3 7H9V11H4L0 10ZM9 22H3C1.34315 22 0 20.6569 0 19L4 18H9V22ZM3 22C1.34315 22 0 20.6569 0 19V10C0 8.34315 1.34315 7 3 7L4 11V18L3 22ZM9 9V20V9Z" fill="#606060" mask="url(#path-1-inside-1_8476_2362)"/>
<mask id="path-3-inside-2_8476_2362" fill="white">
<path d="M14 9H26C26.5523 9 27 9.44772 27 10V19C27 19.5523 26.5523 20 26 20H14V9Z"/>
</mask>
<path d="M14 7H26C27.6569 7 29 8.34315 29 10L25 11H14V7ZM29 19C29 20.6569 27.6569 22 26 22H14V18H25L29 19ZM14 20V9V20ZM26 7C27.6569 7 29 8.34315 29 10V19C29 20.6569 27.6569 22 26 22L25 18V11L26 7Z" fill="#606060" mask="url(#path-3-inside-2_8476_2362)"/>
<path d="M8 12.5V13.1476H6.91016V16.5H6.08984V13.1476H5V12.5H8Z" fill="#606060"/>
<path d="M8.88889 22.5C8.39797 22.5 8 22.102 8 21.6111C8 21.1202 8.39797 20.7222 8.88889 20.7222H9.625C10.1773 20.7222 10.625 20.2745 10.625 19.7222V9.27778C10.625 8.72549 10.1773 8.27778 9.625 8.27778H8.88889C8.39797 8.27778 8 7.87981 8 7.38889C8 6.89797 8.39797 6.5 8.88889 6.5H14.1111C14.602 6.5 15 6.89797 15 7.38889C15 7.87981 14.602 8.27778 14.1111 8.27778H13.375C12.8227 8.27778 12.375 8.72549 12.375 9.27778V19.7222C12.375 20.2745 12.8227 20.7222 13.375 20.7222H14.1111C14.602 20.7222 15 21.1202 15 21.6111C15 22.102 14.602 22.5 14.1111 22.5H8.88889Z" fill="#606060"/>
</svg>
