<svg width="20" height="20" viewBox="0 0 20 20" fill="none" xmlns="http://www.w3.org/2000/svg">
<path d="M17.5 5.41797C17.5 7.02631 16.1917 8.33464 14.5833 8.33464C12.975 8.33464 11.6667 7.02631 11.6667 5.41797C11.6667 3.80964 12.975 2.50131 14.5833 2.50131C16.1917 2.50131 17.5 3.80964 17.5 5.41797ZM15.8333 9.82631C15.4167 9.93464 15 10.0013 14.5833 10.0013C13.3684 9.9991 12.2039 9.51551 11.3449 8.65645C10.4858 7.79738 10.0022 6.63287 10 5.41797C10 4.19297 10.4833 3.08464 11.25 2.25964C11.0988 2.07426 10.9081 1.92495 10.6918 1.82259C10.4756 1.72024 10.2392 1.66741 10 1.66797C9.08333 1.66797 8.33333 2.41797 8.33333 3.33464V3.57631C5.85833 4.30964 4.16667 6.58464 4.16667 9.16797V14.168L2.5 15.8346V16.668H17.5V15.8346L15.8333 14.168V9.82631ZM10 19.168C10.925 19.168 11.6667 18.4263 11.6667 17.5013H8.33333C8.33333 17.9433 8.50893 18.3673 8.82149 18.6798C9.13405 18.9924 9.55797 19.168 10 19.168Z" fill="#606060"/>
<path d="M14.5 9C14.9596 9 15.4148 8.90947 15.8394 8.73358C16.264 8.55769 16.6499 8.29988 16.9749 7.97487C17.2999 7.64987 17.5577 7.26403 17.7336 6.83939C17.9095 6.41475 18 5.95963 18 5.5C18 5.04037 17.9095 4.58525 17.7336 4.16061C17.5577 3.73597 17.2999 3.35013 16.9749 3.02513C16.6499 2.70012 16.264 2.44231 15.8394 2.26642C15.4148 2.09053 14.9596 2 14.5 2C13.5717 2 12.6815 2.36875 12.0251 3.02513C11.3687 3.6815 11 4.57174 11 5.5C11 6.42826 11.3687 7.3185 12.0251 7.97487C12.6815 8.63125 13.5717 9 14.5 9Z" fill="#D0021B"/>
</svg>
